<define-tag pagetitle>DLA-2662-1 postgresql-9.6</define-tag>
<define-tag report_date>2021-05-15</define-tag>
<define-tag secrefs>CVE-2021-32027 CVE-2021-32028</define-tag>
<define-tag packages>postgresql-9.6</define-tag>
<define-tag isvulnerable>yes</define-tag>
<define-tag fixed>yes</define-tag>
<define-tag fixed-section>no</define-tag>

#use wml::debian::security

