<define-tag pagetitle>DLA-2763-1 ruby-kaminari</define-tag>
<define-tag report_date>2021-9-22</define-tag>
<define-tag secrefs>CVE-2020-11082 Bug#961847</define-tag>
<define-tag packages>ruby-kaminari</define-tag>
<define-tag isvulnerable>yes</define-tag>
<define-tag fixed>yes</define-tag>
<define-tag fixed-section>no</define-tag>

#use wml::debian::security

