<define-tag pagetitle>DLA-2769-1 libxstream-java</define-tag>
<define-tag report_date>2021-9-30</define-tag>
<define-tag secrefs>CVE-2021-39139 CVE-2021-39140 CVE-2021-39141 CVE-2021-39144 CVE-2021-39145 CVE-2021-39146 CVE-2021-39147 CVE-2021-39148 CVE-2021-39149 CVE-2021-39150 CVE-2021-39151 CVE-2021-39152 CVE-2021-39153 CVE-2021-39154</define-tag>
<define-tag packages>libxstream-java</define-tag>
<define-tag isvulnerable>yes</define-tag>
<define-tag fixed>yes</define-tag>
<define-tag fixed-section>no</define-tag>

#use wml::debian::security

