<define-tag pagetitle>DLA-778-1 pcsc-lite</define-tag>
<define-tag report_date>2017-1-6</define-tag>
<define-tag secrefs>CVE-2016-10109</define-tag>
<define-tag packages>pcsc-lite</define-tag>
<define-tag isvulnerable>yes</define-tag>
<define-tag fixed>yes</define-tag>
<define-tag fixed-section>no</define-tag>

#use wml::debian::security

