<define-tag pagetitle>DLA-800-1 firefox-esr</define-tag>
<define-tag report_date>2017-1-26</define-tag>
<define-tag secrefs>CVE-2017-5373 CVE-2017-5375 CVE-2017-5376 CVE-2017-5378 CVE-2017-5380 CVE-2017-5383 CVE-2017-5386 CVE-2017-5390 CVE-2017-5396</define-tag>
<define-tag packages>firefox-esr</define-tag>
<define-tag isvulnerable>yes</define-tag>
<define-tag fixed>yes</define-tag>
<define-tag fixed-section>no</define-tag>

#use wml::debian::security

