<define-tag pagetitle>DLA-2369-1 libxml2</define-tag>
<define-tag report_date>2020-9-10</define-tag>
<define-tag secrefs>CVE-2017-8872 CVE-2017-18258 CVE-2018-14404 CVE-2018-14567 CVE-2019-19956 CVE-2019-20388 CVE-2020-7595 CVE-2020-24977 Bug#895245 Bug#862450 Bug#949583 Bug#969529 Bug#949582</define-tag>
<define-tag packages>libxml2</define-tag>
<define-tag isvulnerable>yes</define-tag>
<define-tag fixed>yes</define-tag>
<define-tag fixed-section>no</define-tag>

#use wml::debian::security

