<define-tag pagetitle>DLA-2455-1 packer</define-tag>
<define-tag report_date>2020-11-19</define-tag>
<define-tag secrefs>CVE-2020-9283</define-tag>
<define-tag packages>packer</define-tag>
<define-tag isvulnerable>yes</define-tag>
<define-tag fixed>yes</define-tag>
<define-tag fixed-section>no</define-tag>

#use wml::debian::security

