<define-tag pagetitle>DLA-2093-1 firefox-esr</define-tag>
<define-tag report_date>2020-02-01</define-tag>
<define-tag secrefs>CVE-2019-17026</define-tag>
<define-tag packages>firefox-esr</define-tag>
<define-tag isvulnerable>yes</define-tag>
<define-tag fixed>yes</define-tag>
<define-tag fixed-section>no</define-tag>

#use wml::debian::security

