<define-tag pagetitle>DLA-1753-2 proftpd-dfsg</define-tag>
<define-tag report_date>2019-5-1</define-tag>
<define-tag secrefs>not available Bug#923926 Bug#926719</define-tag>
<define-tag packages>proftpd-dfsg</define-tag>
<define-tag isvulnerable>yes</define-tag>
<define-tag fixed>yes</define-tag>
<define-tag fixed-section>no</define-tag>

#use wml::debian::security

