<define-tag pagetitle>DLA-677-1 nss</define-tag>
<define-tag report_date>2016-10-25</define-tag>
<define-tag packages>nss</define-tag>
<define-tag isvulnerable>yes</define-tag>
<define-tag fixed>yes</define-tag>
<define-tag fixed-section>no</define-tag>

#use wml::debian::security

