<define-tag pagetitle>DLA-744-1 icu</define-tag>
<define-tag report_date>2016-12-16</define-tag>
<define-tag secrefs>CVE-2014-9911 CVE-2016-7415 Bug#838694</define-tag>
<define-tag packages>icu</define-tag>
<define-tag isvulnerable>yes</define-tag>
<define-tag fixed>yes</define-tag>
<define-tag fixed-section>no</define-tag>

#use wml::debian::security

