<define-tag pagetitle>DLA-516-1 linux</define-tag>
<define-tag report_date>2016-6-17</define-tag>
<define-tag secrefs>CVE-2016-0821 CVE-2016-1583 CVE-2016-2184 CVE-2016-2185 CVE-2016-2186 CVE-2016-2187 CVE-2016-3134 CVE-2016-3136 CVE-2016-3137 CVE-2016-3138 CVE-2016-3140 CVE-2016-3157 CVE-2016-3672 CVE-2016-3951 CVE-2016-3955 CVE-2016-3961 CVE-2016-4482 CVE-2016-4485 CVE-2016-4486 CVE-2016-4565 CVE-2016-4569 CVE-2016-4578 CVE-2016-4580 CVE-2016-4913 CVE-2016-5243 CVE-2016-5244 Bug##627782</define-tag>
<define-tag packages>linux</define-tag>
<define-tag isvulnerable>yes</define-tag>
<define-tag fixed>yes</define-tag>
<define-tag fixed-section>no</define-tag>

#use wml::debian::security

